%YAML 1.1
%TAG !u! tag:unity3d.com,2011:
--- !u!162 &1
EditorUserSettings:
  m_ObjectHideFlags: 0
  serializedVersion: 4
  m_ConfigSettings:
    RecentlyUsedScenePath-0:
      value: 22424703114646680e0b0227036c0d505b573a2b3f2d2b35233d3e21e7e43d2cf1a923e7ee2e26
      flags: 0
    RecentlyUsedScenePath-1:
      value: 224247031146467702194c121f2f465030272b6a1c29253b6d645d15f0e53178aad437e4f7363a757626ea310b01323cf7040c18b93c0f0a0101f33135fa1d1c2ef61bc014cd0c53ea0a0fcfd811c5dce7dfd2e6ddd4b78ae1fba5fffbbfcfebe6f0b0f7be97cec9aca3fb8eff90f8e0c4c7b88ad9c8c0d3a3
      flags: 0
    RecentlyUsedScenePath-2:
      value: 22424703114646680e0b0227036c0d505b573a2b3f2d2b35233d5326ece92021
      flags: 0
    RecentlyUsedScenePath-3:
      value: 22424703114646680e0b0227036c0a505b573a2b3f2d2b35233d3e21e7e43d2cf1a923e7ee2e26
      flags: 0
    RecentlyUsedScenePath-4:
      value: 22424703114646680e0b0227036c0c505b57302f2d3a327e38271427fb
      flags: 0
    RecentlyUsedScenePath-5:
      value: 22424703114646680e0b0227036c0e505b572c2f222d2b35233d0e7df7ee3d2cfb
      flags: 0
    RecentlyUsedScenePath-6:
      value: 22424703114646680e0b0227036c0b505b57302f2d3a32133f2c193af6f37a2decee22f0
      flags: 0
    RecentlyUsedScenePath-7:
      value: 22424703114646680e0b0227036c09505b572c2f222d2b35233d0e10f0e53031f6f478fce9332b25
      flags: 0
    RecentlyUsedScenePath-8:
      value: 22424703114646680e0b0227036c6c001314112b200523233e281a36acf53a31f6fe
      flags: 0
    RecentlyUsedScenePath-9:
      value: 22424703114646680e0b0227036c73150012146a1f2b233e283a521ee3e93a15e7e923a7f234362820
      flags: 0
    vcSharedLogLevel:
      value: 0d5e400f0650
      flags: 0
  m_VCAutomaticAdd: 1
  m_VCDebugCom: 0
  m_VCDebugCmd: 0
  m_VCDebugOut: 0
  m_SemanticMergeMode: 2
  m_VCShowFailedCheckout: 1
  m_VCOverwriteFailedCheckoutAssets: 1
  m_VCProjectOverlayIcons: 1
  m_VCHierarchyOverlayIcons: 1
  m_VCOtherOverlayIcons: 1
  m_VCAllowAsyncUpdate: 1
